{
  "project_info": {
    "project_number": "817817741020",
    "project_id": "simple-todo-app-8a4cc",
    "storage_bucket": "simple-todo-app-8a4cc.appspot.com"
  },
  "client": [
    {
      "client_info": {
        "mobilesdk_app_id": "1:817817741020:android:981c1e150b00676d2bb619",
        "android_client_info": {
          "package_name": "com.example.simpletodoapp"
        }
      },
      "oauth_client": [
        {
          "client_id": "817817741020-oatt8qh5tb15o7h04ndjkta2jgqpan71.apps.googleusercontent.com",
          "client_type": 1,
          "android_info": {
            "package_name": "com.example.simpletodoapp",
            "certificate_hash": "e1e01700d27b73b2dd5668ebb2b493634ec5b3b8"
          }
        },
        {
          "client_id": "817817741020-hl2vv8faqmqj8gmh81mfceob0bbp9ot0.apps.googleusercontent.com",
          "client_type": 3
        }
      ],
      "api_key": [
        {
          "current_key": "AIzaSyBFNGze1TyyZsEzZ2KjMQnOecFCnKMU9kc"
        }
      ],
      "services": {
        "appinvite_service": {
          "other_platform_oauth_client": [
            {
              "client_id": "817817741020-hl2vv8faqmqj8gmh81mfceob0bbp9ot0.apps.googleusercontent.com",
              "client_type": 3
            }
          ]
        }
      }
    }
  ],
  "configuration_version": "1"
}